{
  "template": "cmake",
  "kill": "qmlscene",
  "scripts": {
    "ilogs": "adb shell \"tail -f /home/phablet/.cache/upstart/ernesst-indicator-upower.log\"",
    "ilog": "adb shell \"cat /home/phablet/.cache/upstart/ernesst-indicator-upower.log\""
  }
}
